Social Dimensions Analysis
…
# printing the head of the wvs7_soc_sum_wide data
wvs7_soc_sum_wide

# A tibble: 1,593 × 8
# Groups:   country_alpha [59]
   country_alpha region var            coef      se     ul      ll country_focus
   <chr>         <chr>  <chr>         <dbl>   <dbl>  <dbl>   <dbl> <chr>        
 1 AND           Europe important_f… 0.992  0.00281 0.998  0.987   Others       
 2 AND           Europe important_fr 0.923  0.00840 0.940  0.907   Others       
 3 AND           Europe neighbor_add 0.749  0.0137  0.776  0.722   Others       
 4 AND           Europe neighbor_di… 0.0388 0.00610 0.0508 0.0269  Others       
 5 AND           Europe neighbor_ai… 0.114  0.0100  0.133  0.0939  Others       
 6 AND           Europe neighbor_imm 0.0269 0.00511 0.0369 0.0169  Others       
 7 AND           Europe neighbor_gay 0.0518 0.00699 0.0655 0.0381  Others       
 8 AND           Europe neighbor_di… 0.0388 0.00610 0.0508 0.0269  Others       
 9 AND           Europe neighbor_dr… 0.621  0.0153  0.651  0.591   Others       
10 AND           Europe neighbor_un… 0.0159 0.00395 0.0237 0.00819 Others       
# … with 1,583 more rows
…
wvs7_econ_rel <- wvs7_working %>%
  as_survey(weights = c(weight)) %>%
  group_by(country_alpha, region) %>%
  summarise_at(vars(eql_inc:rel_person), survey_mean, na.rm = T) %>% 
  mutate(
    across( c(-1, -ends_with("_se"), -starts_with("pos_"), -starts_with("neg_") ), 
           ~ . + 1.96*get(str_c(cur_column(), '_se')),
           .names = 'pos_{.col}'),
    across( c(-1, -ends_with("_se"), -starts_with("pos_"), -starts_with("neg_") ), 
           ~ . - 1.96*get(str_c(cur_column(), '_se')),
           .names = 'neg_{.col}')
         )
wvs7_econ_rel

# A tibble: 59 × 38
# Groups:   country_alpha [59]
   country_alpha region eql_inc eql_inc_se prvt_owner prvt_owner_se more_compete
   <chr>         <chr>    <dbl>      <dbl>      <dbl>         <dbl>        <dbl>
 1 AND           Europe  0.287     0.0143       0.372       0.0153         0.753
 2 ARG           South…  0.346     0.0178       0.226       0.0162         0.451
 3 ARM           Europe  0.0530    0.00701      0.251       0.0139         0.734
 4 AUS           East …  0.283     0.0140       0.370       0.0154         0.645
 5 BGD           South…  0.584     0.0142       0.444       0.0143         0.66 
 6 BOL           South…  0.252     0.00967      0.231       0.00954        0.452
 7 BRA           South…  0.437     0.0121       0.421       0.0122         0.585
 8 CAN           North…  0.357     0.00916      0.368       0.00927        0.584
 9 CHL           South…  0.559     0.0250       0.284       0.0285         0.470
10 CHN           East …  0.342     0.0101       0.310       0.00996        0.683
# … with 49 more rows, and 31 more variables: more_compete_se <dbl>,
#   hard_work <dbl>, hard_work_se <dbl>, imp_god <dbl>, imp_god_se <dbl>,
#   rel_always_right <dbl>, rel_always_right_se <dbl>, acceptable_rel <dbl>,
#   acceptable_rel_se <dbl>, freq_rel_services <dbl>,
#   freq_rel_services_se <dbl>, rel_person <dbl>, rel_person_se <dbl>,
#   pos_eql_inc <dbl>, pos_prvt_owner <dbl>, pos_more_compete <dbl>,
#   pos_hard_work <dbl>, pos_imp_god <dbl>, pos_rel_always_right <dbl>, …
…
wvs7_econ_rel_sum_wide

# A tibble: 531 × 8
# Groups:   country_alpha [59]
   country_alpha region        var      coef      se     ul     ll country_focus
   <chr>         <chr>         <chr>   <dbl>   <dbl>  <dbl>  <dbl> <chr>        
 1 AND           Europe        eql_i… 0.287  0.0143  0.315  0.259  Others       
 2 AND           Europe        prvt_… 0.372  0.0153  0.402  0.342  Others       
 3 AND           Europe        more_… 0.753  0.0136  0.780  0.726  Others       
 4 AND           Europe        hard_… 0.547  0.0157  0.578  0.517  Others       
 5 AND           Europe        imp_g… 0.521  0.0158  0.552  0.490  Others       
 6 AND           Europe        rel_a… 0.120  0.0103  0.140  0.0995 Others       
 7 AND           Europe        accep… 0.149  0.0113  0.171  0.127  Others       
 8 AND           Europe        freq_… 0.0798 0.00856 0.0966 0.0631 Others       
 9 AND           Europe        rel_p… 0.451  0.0157  0.481  0.420  Others       
10 ARG           South America eql_i… 0.346  0.0178  0.381  0.311  Others       
# … with 521 more rows
…
wvs7_pol <- wvs7_working %>%
  as_survey(weights = c(weight)) %>%
  group_by(country_alpha, region) %>%
  summarise_at(vars(interest_in_politics:political_views), survey_mean, na.rm = T) %>% 
  mutate(
    across( c(-1, -ends_with("_se"), -starts_with("pos_"), -starts_with("neg_") ), 
           ~ . + 1.96*get(str_c(cur_column(), '_se')),
           .names = 'pos_{.col}'),
    across( c(-1, -ends_with("_se"), -starts_with("pos_"), -starts_with("neg_") ), 
           ~ . - 1.96*get(str_c(cur_column(), '_se')),
           .names = 'neg_{.col}')
         )
wvs7_pol

# A tibble: 59 × 38
# Groups:   country_alpha [59]
   country_alpha region       interest_in_pol… interest_in_pol… discuss_politic…
   <chr>         <chr>                   <dbl>            <dbl>            <dbl>
 1 AND           Europe                  0.442          0.0157             0.696
 2 ARG           South Ameri…            0.339          0.0168             0.601
 3 ARM           Europe                  0.565          0.0156             0.812
 4 AUS           East Asia-P…            0.546          0.0159             0.746
 5 BGD           South Asia              0.349          0.0139             0.553
 6 BOL           South Ameri…            0.297          0.0101             0.531
 7 BRA           South Ameri…            0.395          0.0118             0.596
 8 CAN           North Ameri…            0.624          0.00924            0.780
 9 CHL           South Ameri…            0.283          0.0195             0.475
10 CHN           East Asia-P…            0.507          0.0106             0.635
# … with 49 more rows, and 33 more variables:
#   discuss_political_matter_se <dbl>, signing_a_petition <dbl>,
#   signing_a_petition_se <dbl>, joining_boycott <dbl>,
#   joining_boycott_se <dbl>, peaceful_demonstration <dbl>,
#   peaceful_demonstration_se <dbl>, unofficial_strikes <dbl>,
#   unofficial_strikes_se <dbl>, Having_strong_leader <dbl>,
#   Having_strong_leader_se <dbl>, democratic_political_system <dbl>, …
…
wvs7_pol_sum_wide

# A tibble: 531 × 8
# Groups:   country_alpha [59]
   country_alpha region        var        coef      se    ul    ll country_focus
   <chr>         <chr>         <chr>     <dbl>   <dbl> <dbl> <dbl> <chr>        
 1 AND           Europe        interest… 0.442 0.0157  0.473 0.411 Others       
 2 AND           Europe        discuss_… 0.696 0.0147  0.725 0.667 Others       
 3 AND           Europe        signing_… 0.834 0.0118  0.857 0.811 Others       
 4 AND           Europe        joining_… 0.355 0.0151  0.385 0.325 Others       
 5 AND           Europe        peaceful… 0.657 0.0150  0.686 0.628 Others       
 6 AND           Europe        unoffici… 0.515 0.0158  0.546 0.485 Others       
 7 AND           Europe        Having_s… 0.227 0.0133  0.253 0.201 Others       
 8 AND           Europe        democrat… 0.966 0.00574 0.977 0.955 Others       
 9 AND           Europe        politica… 0.725 0.0148  0.754 0.696 Others       
10 ARG           South America interest… 0.339 0.0168  0.372 0.306 Others       
# … with 521 more rows
…
    # description for the dep. vars
    var_desc = case_when(
    dep_vars == 'eql_inc' ~ 'Incomes should be equal',
    dep_vars == 'prvt_owner' ~ 'Private Ownership of business \nshould be increased ', 
    dep_vars == 'more_compete' ~ 'More compeititon is good', 
    dep_vars == 'hard_work' ~ 'Hard work brings better life'
    )
  )

Code

model_results_df

# A tibble: 284 × 12
   dep_vars term    estimate std.error statistic   p.value    or var_diag  or_se
   <chr>    <chr>      <dbl>     <dbl>     <dbl>     <dbl> <dbl>    <dbl>  <dbl>
 1 eql_inc  "(Inte…   0.348     0.0150     23.2  8.63e-119 1.42  0.000224 0.0212
 2 eql_inc  "relev…  -0.122     0.0174     -7.00 2.63e- 12 0.885 0.000303 0.0154
 3 eql_inc  "relev…  -0.0920    0.0168     -5.49 4.10e-  8 0.912 0.000281 0.0153
 4 eql_inc  "relev…  -0.379     0.0152    -25.0  1.39e-137 0.684 0.000230 0.0104
 5 eql_inc  "relev…  -0.123     0.0138     -8.95 3.63e- 19 0.884 0.000189 0.0122
 6 eql_inc  "relev…   0.132     0.0155      8.53 1.45e- 17 1.14  0.000240 0.0177
 7 eql_inc  "relev…  -0.196     0.0134    -14.6  2.78e- 48 0.822 0.000181 0.0110
 8 eql_inc  "relev…  -0.0338    0.0140     -2.42 1.57e-  2 0.967 0.000195 0.0135
 9 eql_inc  "relev…  -0.0678    0.0111     -6.11 1.01e-  9 0.934 0.000123 0.0104
10 eql_inc  "relev…   0.149     0.0168      8.85 9.17e- 19 1.16  0.000282 0.0195
# … with 274 more rows, and 3 more variables: or_ll <dbl>, or_ul <dbl>,
#   var_desc <chr>
…
